%YAML 1.1
%TAG !u! tag:unity3d.com,2011:
--- !u!1 &5975545910209439494
GameObject:
  m_ObjectHideFlags: 0
  m_CorrespondingSourceObject: {fileID: 0}
  m_PrefabInstance: {fileID: 0}
  m_PrefabAsset: {fileID: 0}
  serializedVersion: 6
  m_Component:
  - component: {fileID: 5975545910209439498}
  - component: {fileID: 5975545910209439493}
  - component: {fileID: 5975545910209439492}
  - component: {fileID: 5975545910209439495}
  m_Layer: 5
  m_Name: LoginCanvas
  m_TagString: Untagged
  m_Icon: {fileID: 0}
  m_NavMeshLayer: 0
  m_StaticEditorFlags: 0
  m_IsActive: 1
--- !u!224 &5975545910209439498
RectTransform:
  m_ObjectHideFlags: 0
  m_CorrespondingSourceObject: {fileID: 0}
  m_PrefabInstance: {fileID: 0}
  m_PrefabAsset: {fileID: 0}
  m_GameObject: {fileID: 5975545910209439494}
  m_LocalRotation: {x: 0, y: 0, z: 0, w: 1}
  m_LocalPosition: {x: 0, y: 0, z: 0}
  m_LocalScale: {x: 0, y: 0, z: 0}
  m_Children:
  - {fileID: 5975545909631170409}
  m_Father: {fileID: 0}
  m_RootOrder: 0
  m_LocalEulerAnglesHint: {x: 0, y: 0, z: 0}
  m_AnchorMin: {x: 0, y: 0}
  m_AnchorMax: {x: 0, y: 0}
  m_AnchoredPosition: {x: 0, y: 0}
  m_SizeDelta: {x: 0, y: 0}
  m_Pivot: {x: 0, y: 0}
--- !u!223 &5975545910209439493
Canvas:
  m_ObjectHideFlags: 0
  m_CorrespondingSourceObject: {fileID: 0}
  m_PrefabInstance: {fileID: 0}
  m_PrefabAsset: {fileID: 0}
  m_GameObject: {fileID: 5975545910209439494}
  m_Enabled: 1
  serializedVersion: 3
  m_RenderMode: 0
  m_Camera: {fileID: 0}
  m_PlaneDistance: 100
  m_PixelPerfect: 0
  m_ReceivesEvents: 1
  m_OverrideSorting: 0
  m_OverridePixelPerfect: 0
  m_SortingBucketNormalizedSize: 0
  m_AdditionalShaderChannelsFlag: 25
  m_SortingLayerID: 0
  m_SortingOrder: 0
  m_TargetDisplay: 0
--- !u!114 &5975545910209439492
MonoBehaviour:
  m_ObjectHideFlags: 0
  m_CorrespondingSourceObject: {fileID: 0}
  m_PrefabInstance: {fileID: 0}
  m_PrefabAsset: {fileID: 0}
  m_GameObject: {fileID: 5975545910209439494}
  m_Enabled: 1
  m_EditorHideFlags: 0
  m_Script: {fileID: 11500000, guid: 0cd44c1031e13a943bb63640046fad76, type: 3}
  m_Name: 
  m_EditorClassIdentifier: 
  m_UiScaleMode: 0
  m_ReferencePixelsPerUnit: 100
  m_ScaleFactor: 1
  m_ReferenceResolution: {x: 800, y: 600}
  m_ScreenMatchMode: 0
  m_MatchWidthOrHeight: 0
  m_PhysicalUnit: 3
  m_FallbackScreenDPI: 96
  m_DefaultSpriteDPI: 96
  m_DynamicPixelsPerUnit: 1
  m_PresetInfoIsWorld: 0
--- !u!114 &5975545910209439495
MonoBehaviour:
  m_ObjectHideFlags: 0
  m_CorrespondingSourceObject: {fileID: 0}
  m_PrefabInstance: {fileID: 0}
  m_PrefabAsset: {fileID: 0}
  m_GameObject: {fileID: 5975545910209439494}
  m_Enabled: 1
  m_EditorHideFlags: 0
  m_Script: {fileID: 11500000, guid: dc42784cf147c0c48a680349fa168899, type: 3}
  m_Name: 
  m_EditorClassIdentifier: 
  m_IgnoreReversedGraphics: 1
  m_BlockingObjects: 0
  m_BlockingMask:
    serializedVersion: 2
    m_Bits: 4294967295
--- !u!1001 &7273405551646397788
PrefabInstance:
  m_ObjectHideFlags: 0
  serializedVersion: 2
  m_Modification:
    m_TransformParent: {fileID: 5975545910209439498}
    m_Modifications:
    - target: {fileID: 3899330613100306996, guid: 6c8e66776a10ecc4381cf8101a2c2ba0, type: 3}
      propertyPath: m_Name
      value: Panel_login
      objectReference: {fileID: 0}
    - target: {fileID: 3899330613100306997, guid: 6c8e66776a10ecc4381cf8101a2c2ba0, type: 3}
      propertyPath: m_Pivot.x
      value: 0.5
      objectReference: {fileID: 0}
    - target: {fileID: 3899330613100306997, guid: 6c8e66776a10ecc4381cf8101a2c2ba0, type: 3}
      propertyPath: m_Pivot.y
      value: 0.5
      objectReference: {fileID: 0}
    - target: {fileID: 3899330613100306997, guid: 6c8e66776a10ecc4381cf8101a2c2ba0, type: 3}
      propertyPath: m_RootOrder
      value: 0
      objectReference: {fileID: 0}
    - target: {fileID: 3899330613100306997, guid: 6c8e66776a10ecc4381cf8101a2c2ba0, type: 3}
      propertyPath: m_AnchorMax.x
      value: 1
      objectReference: {fileID: 0}
    - target: {fileID: 3899330613100306997, guid: 6c8e66776a10ecc4381cf8101a2c2ba0, type: 3}
      propertyPath: m_AnchorMax.y
      value: 1
      objectReference: {fileID: 0}
    - target: {fileID: 3899330613100306997, guid: 6c8e66776a10ecc4381cf8101a2c2ba0, type: 3}
      propertyPath: m_AnchorMin.x
      value: 0
      objectReference: {fileID: 0}
    - target: {fileID: 3899330613100306997, guid: 6c8e66776a10ecc4381cf8101a2c2ba0, type: 3}
      propertyPath: m_AnchorMin.y
      value: 0
      objectReference: {fileID: 0}
    - target: {fileID: 3899330613100306997, guid: 6c8e66776a10ecc4381cf8101a2c2ba0, type: 3}
      propertyPath: m_SizeDelta.x
      value: -500
      objectReference: {fileID: 0}
    - target: {fileID: 3899330613100306997, guid: 6c8e66776a10ecc4381cf8101a2c2ba0, type: 3}
      propertyPath: m_SizeDelta.y
      value: -325
      objectReference: {fileID: 0}
    - target: {fileID: 3899330613100306997, guid: 6c8e66776a10ecc4381cf8101a2c2ba0, type: 3}
      propertyPath: m_LocalPosition.x
      value: 0
      objectReference: {fileID: 0}
    - target: {fileID: 3899330613100306997, guid: 6c8e66776a10ecc4381cf8101a2c2ba0, type: 3}
      propertyPath: m_LocalPosition.y
      value: 0
      objectReference: {fileID: 0}
    - target: {fileID: 3899330613100306997, guid: 6c8e66776a10ecc4381cf8101a2c2ba0, type: 3}
      propertyPath: m_LocalPosition.z
      value: 0
      objectReference: {fileID: 0}
    - target: {fileID: 3899330613100306997, guid: 6c8e66776a10ecc4381cf8101a2c2ba0, type: 3}
      propertyPath: m_LocalRotation.w
      value: 1
      objectReference: {fileID: 0}
    - target: {fileID: 3899330613100306997, guid: 6c8e66776a10ecc4381cf8101a2c2ba0, type: 3}
      propertyPath: m_LocalRotation.x
      value: 0
      objectReference: {fileID: 0}
    - target: {fileID: 3899330613100306997, guid: 6c8e66776a10ecc4381cf8101a2c2ba0, type: 3}
      propertyPath: m_LocalRotation.y
      value: 0
      objectReference: {fileID: 0}
    - target: {fileID: 3899330613100306997, guid: 6c8e66776a10ecc4381cf8101a2c2ba0, type: 3}
      propertyPath: m_LocalRotation.z
      value: 0
      objectReference: {fileID: 0}
    - target: {fileID: 3899330613100306997, guid: 6c8e66776a10ecc4381cf8101a2c2ba0, type: 3}
      propertyPath: m_AnchoredPosition.x
      value: -250
      objectReference: {fileID: 0}
    - target: {fileID: 3899330613100306997, guid: 6c8e66776a10ecc4381cf8101a2c2ba0, type: 3}
      propertyPath: m_AnchoredPosition.y
      value: 162.5
      objectReference: {fileID: 0}
    - target: {fileID: 3899330613100306997, guid: 6c8e66776a10ecc4381cf8101a2c2ba0, type: 3}
      propertyPath: m_LocalEulerAnglesHint.x
      value: 0
      objectReference: {fileID: 0}
    - target: {fileID: 3899330613100306997, guid: 6c8e66776a10ecc4381cf8101a2c2ba0, type: 3}
      propertyPath: m_LocalEulerAnglesHint.y
      value: 0
      objectReference: {fileID: 0}
    - target: {fileID: 3899330613100306997, guid: 6c8e66776a10ecc4381cf8101a2c2ba0, type: 3}
      propertyPath: m_LocalEulerAnglesHint.z
      value: 0
      objectReference: {fileID: 0}
    m_RemovedComponents: []
  m_SourcePrefab: {fileID: 100100000, guid: 6c8e66776a10ecc4381cf8101a2c2ba0, type: 3}
--- !u!224 &5975545909631170409 stripped
RectTransform:
  m_CorrespondingSourceObject: {fileID: 3899330613100306997, guid: 6c8e66776a10ecc4381cf8101a2c2ba0, type: 3}
  m_PrefabInstance: {fileID: 7273405551646397788}
  m_PrefabAsset: {fileID: 0}
